HW2/Q6/simulation/qsim/Memory.msim.vcd
$comment
	File created using the following command:
		vcd file Memory.msim.vcd -direction
$end
$date
	Sun Apr 08 10:28:52 2018
$end
$version
	ModelSim Version 10.5b
$end
$timescale
	1ps
$end

$scope module Memory_vlg_vec_tst $end
$var reg 3 ! Address_one [2:0] $end
$var reg 3 " Address_two [2:0] $end
$var reg 1 # Clear $end
$var reg 3 $ ClearAddress [2:0] $end
$var reg 1 % CLK $end
$var reg 3 & WAddress [2:0] $end
$var reg 16 ' WData [15:0] $end
$var reg 1 ( WEnable $end
$var wire 1 ) out_one [15] $end
$var wire 1 * out_one [14] $end
$var wire 1 + out_one [13] $end
$var wire 1 , out_one [12] $end
$var wire 1 - out_one [11] $end
$var wire 1 . out_one [10] $end
$var wire 1 / out_one [9] $end
$var wire 1 0 out_one [8] $end
$var wire 1 1 out_one [7] $end
$var wire 1 2 out_one [6] $end
$var wire 1 3 out_one [5] $end
$var wire 1 4 out_one [4] $end
$var wire 1 5 out_one [3] $end
$var wire 1 6 out_one [2] $end
$var wire 1 7 out_one [1] $end
$var wire 1 8 out_one [0] $end
$var wire 1 9 out_two [15] $end
$var wire 1 : out_two [14] $end
$var wire 1 ; out_two [13] $end
$var wire 1 < out_two [12] $end
$var wire 1 = out_two [11] $end
$var wire 1 > out_two [10] $end
$var wire 1 ? out_two [9] $end
$var wire 1 @ out_two [8] $end
$var wire 1 A out_two [7] $end
$var wire 1 B out_two [6] $end
$var wire 1 C out_two [5] $end
$var wire 1 D out_two [4] $end
$var wire 1 E out_two [3] $end
$var wire 1 F out_two [2] $end
$var wire 1 G out_two [1] $end
$var wire 1 H out_two [0] $end

$scope module i1 $end
$var wire 1 I gnd $end
$var wire 1 J vcc $end
$var wire 1 K unknown $end
$var tri1 1 L devclrn $end
$var tri1 1 M devpor $end
$var tri1 1 N devoe $end
$var wire 1 O out_one[15]~output_o $end
$var wire 1 P out_one[14]~output_o $end
$var wire 1 Q out_one[13]~output_o $end
$var wire 1 R out_one[12]~output_o $end
$var wire 1 S out_one[11]~output_o $end
$var wire 1 T out_one[10]~output_o $end
$var wire 1 U out_one[9]~output_o $end
$var wire 1 V out_one[8]~output_o $end
$var wire 1 W out_one[7]~output_o $end
$var wire 1 X out_one[6]~output_o $end
$var wire 1 Y out_one[5]~output_o $end
$var wire 1 Z out_one[4]~output_o $end
$var wire 1 [ out_one[3]~output_o $end
$var wire 1 \ out_one[2]~output_o $end
$var wire 1 ] out_one[1]~output_o $end
$var wire 1 ^ out_one[0]~output_o $end
$var wire 1 _ out_two[15]~output_o $end
$var wire 1 ` out_two[14]~output_o $end
$var wire 1 a out_two[13]~output_o $end
$var wire 1 b out_two[12]~output_o $end
$var wire 1 c out_two[11]~output_o $end
$var wire 1 d out_two[10]~output_o $end
$var wire 1 e out_two[9]~output_o $end
$var wire 1 f out_two[8]~output_o $end
$var wire 1 g out_two[7]~output_o $end
$var wire 1 h out_two[6]~output_o $end
$var wire 1 i out_two[5]~output_o $end
$var wire 1 j out_two[4]~output_o $end
$var wire 1 k out_two[3]~output_o $end
$var wire 1 l out_two[2]~output_o $end
$var wire 1 m out_two[1]~output_o $end
$var wire 1 n out_two[0]~output_o $end
$var wire 1 o CLK~input_o $end
$var wire 1 p WData[15]~input_o $end
$var wire 1 q ClearAddress[0]~input_o $end
$var wire 1 r Clear~input_o $end
$var wire 1 s ClearAddress[1]~input_o $end
$var wire 1 t ClearAddress[2]~input_o $end
$var wire 1 u inst|inst10|inst|inst12~0_combout $end
$var wire 1 v WAddress[0]~input_o $end
$var wire 1 w WEnable~input_o $end
$var wire 1 x WAddress[1]~input_o $end
$var wire 1 y WAddress[2]~input_o $end
$var wire 1 z inst|inst11|inst|inst12~0_combout $end
$var wire 1 { inst|inst7|inst20~q $end
$var wire 1 | Address_one[1]~input_o $end
$var wire 1 } Address_one[0]~input_o $end
$var wire 1 ~ inst4|inst1|inst1|inst2~combout $end
$var wire 1 !! inst|inst10|inst|inst12~1_combout $end
$var wire 1 "! inst|inst11|inst|inst12~1_combout $end
$var wire 1 #! inst|inst5|inst20~q $end
$var wire 1 $! inst|inst10|inst|inst12~2_combout $end
$var wire 1 %! inst|inst11|inst|inst12~2_combout $end
$var wire 1 &! inst|inst4|inst20~q $end
$var wire 1 '! inst|inst8|inst6|$00000|auto_generated|result_node[15]~0_combout $end
$var wire 1 (! inst|inst10|inst|inst12~3_combout $end
$var wire 1 )! inst|inst11|inst|inst12~3_combout $end
$var wire 1 *! inst|inst6|inst20~q $end
$var wire 1 +! inst|inst8|inst6|$00000|auto_generated|result_node[15]~1_combout $end
$var wire 1 ,! inst|inst10|inst|inst12~4_combout $end
$var wire 1 -! inst|inst11|inst|inst12~4_combout $end
$var wire 1 .! inst|inst3|inst20~q $end
$var wire 1 /! inst|inst10|inst|inst12~5_combout $end
$var wire 1 0! inst|inst11|inst|inst12~5_combout $end
$var wire 1 1! inst|inst1|inst20~q $end
$var wire 1 2! inst|inst10|inst|inst12~6_combout $end
$var wire 1 3! inst|inst11|inst|inst12~6_combout $end
$var wire 1 4! inst|inst|inst20~q $end
$var wire 1 5! inst|inst8|inst6|$00000|auto_generated|result_node[15]~2_combout $end
$var wire 1 6! inst|inst10|inst|inst12~7_combout $end
$var wire 1 7! inst|inst11|inst|inst12~7_combout $end
$var wire 1 8! inst|inst2|inst20~q $end
$var wire 1 9! inst|inst8|inst6|$00000|auto_generated|result_node[15]~3_combout $end
$var wire 1 :! Address_one[2]~input_o $end
$var wire 1 ;! inst4|inst2|inst1|inst2~combout $end
$var wire 1 <! inst|inst8|inst6|$00000|auto_generated|result_node[15]~4_combout $end
$var wire 1 =! WData[14]~input_o $end
$var wire 1 >! inst|inst4|inst19~q $end
$var wire 1 ?! inst|inst5|inst19~q $end
$var wire 1 @! inst|inst7|inst19~q $end
$var wire 1 A! inst|inst8|inst6|$00000|auto_generated|result_node[14]~5_combout $end
$var wire 1 B! inst|inst6|inst19~q $end
$var wire 1 C! inst|inst8|inst6|$00000|auto_generated|result_node[14]~6_combout $end
$var wire 1 D! inst|inst3|inst19~q $end
$var wire 1 E! inst|inst1|inst19~q $end
$var wire 1 F! inst|inst|inst19~q $end
$var wire 1 G! inst|inst8|inst6|$00000|auto_generated|result_node[14]~7_combout $end
$var wire 1 H! inst|inst2|inst19~q $end
$var wire 1 I! inst|inst8|inst6|$00000|auto_generated|result_node[14]~8_combout $end
$var wire 1 J! inst|inst8|inst6|$00000|auto_generated|result_node[14]~9_combout $end
$var wire 1 K! WData[13]~input_o $end
$var wire 1 L! inst|inst4|inst18~q $end
$var wire 1 M! inst|inst5|inst18~q $end
$var wire 1 N! inst|inst7|inst18~q $end
$var wire 1 O! inst|inst8|inst6|$00000|auto_generated|result_node[13]~10_combout $end
$var wire 1 P! inst|inst6|inst18~q $end
$var wire 1 Q! inst|inst8|inst6|$00000|auto_generated|result_node[13]~11_combout $end
$var wire 1 R! inst|inst3|inst18~q $end
$var wire 1 S! inst|inst1|inst18~q $end
$var wire 1 T! inst|inst|inst18~q $end
$var wire 1 U! inst|inst8|inst6|$00000|auto_generated|result_node[13]~12_combout $end
$var wire 1 V! inst|inst2|inst18~q $end
$var wire 1 W! inst|inst8|inst6|$00000|auto_generated|result_node[13]~13_combout $end
$var wire 1 X! inst|inst8|inst6|$00000|auto_generated|result_node[13]~14_combout $end
$var wire 1 Y! WData[12]~input_o $end
$var wire 1 Z! inst|inst4|inst17~q $end
$var wire 1 [! inst|inst5|inst17~q $end
$var wire 1 \! inst|inst7|inst17~q $end
$var wire 1 ]! inst|inst8|inst6|$00000|auto_generated|result_node[12]~15_combout $end
$var wire 1 ^! inst|inst6|inst17~q $end
$var wire 1 _! inst|inst8|inst6|$00000|auto_generated|result_node[12]~16_combout $end
$var wire 1 `! inst|inst3|inst17~q $end
$var wire 1 a! inst|inst1|inst17~q $end
$var wire 1 b! inst|inst|inst17~q $end
$var wire 1 c! inst|inst8|inst6|$00000|auto_generated|result_node[12]~17_combout $end
$var wire 1 d! inst|inst2|inst17~q $end
$var wire 1 e! inst|inst8|inst6|$00000|auto_generated|result_node[12]~18_combout $end
$var wire 1 f! inst|inst8|inst6|$00000|auto_generated|result_node[12]~19_combout $end
$var wire 1 g! WData[11]~input_o $end
$var wire 1 h! inst|inst4|inst16~q $end
$var wire 1 i! inst|inst5|inst16~q $end
$var wire 1 j! inst|inst7|inst16~q $end
$var wire 1 k! inst|inst8|inst6|$00000|auto_generated|result_node[11]~20_combout $end
$var wire 1 l! inst|inst6|inst16~q $end
$var wire 1 m! inst|inst8|inst6|$00000|auto_generated|result_node[11]~21_combout $end
$var wire 1 n! inst|inst3|inst16~q $end
$var wire 1 o! inst|inst1|inst16~q $end
$var wire 1 p! inst|inst|inst16~q $end
$var wire 1 q! inst|inst8|inst6|$00000|auto_generated|result_node[11]~22_combout $end
$var wire 1 r! inst|inst2|inst16~q $end
$var wire 1 s! inst|inst8|inst6|$00000|auto_generated|result_node[11]~23_combout $end
$var wire 1 t! inst|inst8|inst6|$00000|auto_generated|result_node[11]~24_combout $end
$var wire 1 u! WData[10]~input_o $end
$var wire 1 v! inst|inst4|inst15~q $end
$var wire 1 w! inst|inst5|inst15~q $end
$var wire 1 x! inst|inst7|inst15~q $end
$var wire 1 y! inst|inst8|inst6|$00000|auto_generated|result_node[10]~25_combout $end
$var wire 1 z! inst|inst6|inst15~q $end
$var wire 1 {! inst|inst8|inst6|$00000|auto_generated|result_node[10]~26_combout $end
$var wire 1 |! inst|inst3|inst15~q $end
$var wire 1 }! inst|inst1|inst15~q $end
$var wire 1 ~! inst|inst|inst15~q $end
$var wire 1 !" inst|inst8|inst6|$00000|auto_generated|result_node[10]~27_combout $end
$var wire 1 "" inst|inst2|inst15~q $end
$var wire 1 #" inst|inst8|inst6|$00000|auto_generated|result_node[10]~28_combout $end
$var wire 1 $" inst|inst8|inst6|$00000|auto_generated|result_node[10]~29_combout $end
$var wire 1 %" WData[9]~input_o $end
$var wire 1 &" inst|inst4|inst14~q $end
$var wire 1 '" inst|inst5|inst14~q $end
$var wire 1 (" inst|inst7|inst14~q $end
$var wire 1 )" inst|inst8|inst6|$00000|auto_generated|result_node[9]~30_combout $end
$var wire 1 *" inst|inst6|inst14~q $end
$var wire 1 +" inst|inst8|inst6|$00000|auto_generated|result_node[9]~31_combout $end
$var wire 1 ," inst|inst3|inst14~q $end
$var wire 1 -" inst|inst1|inst14~q $end
$var wire 1 ." inst|inst|inst14~q $end
$var wire 1 /" inst|inst8|inst6|$00000|auto_generated|result_node[9]~32_combout $end
$var wire 1 0" inst|inst2|inst14~q $end
$var wire 1 1" inst|inst8|inst6|$00000|auto_generated|result_node[9]~33_combout $end
$var wire 1 2" inst|inst8|inst6|$00000|auto_generated|result_node[9]~34_combout $end
$var wire 1 3" WData[8]~input_o $end
$var wire 1 4" inst|inst4|inst13~q $end
$var wire 1 5" inst|inst5|inst13~q $end
$var wire 1 6" inst|inst7|inst13~q $end
$var wire 1 7" inst|inst8|inst6|$00000|auto_generated|result_node[8]~35_combout $end
$var wire 1 8" inst|inst6|inst13~q $end
$var wire 1 9" inst|inst8|inst6|$00000|auto_generated|result_node[8]~36_combout $end
$var wire 1 :" inst|inst3|inst13~q $end
$var wire 1 ;" inst|inst1|inst13~q $end
$var wire 1 <" inst|inst|inst13~q $end
$var wire 1 =" inst|inst8|inst6|$00000|auto_generated|result_node[8]~37_combout $end
$var wire 1 >" inst|inst2|inst13~q $end
$var wire 1 ?" inst|inst8|inst6|$00000|auto_generated|result_node[8]~38_combout $end
$var wire 1 @" inst|inst8|inst6|$00000|auto_generated|result_node[8]~39_combout $end
$var wire 1 A" WData[7]~input_o $end
$var wire 1 B" inst|inst4|inst12~q $end
$var wire 1 C" inst|inst5|inst12~q $end
$var wire 1 D" inst|inst7|inst12~q $end
$var wire 1 E" inst|inst8|inst6|$00000|auto_generated|result_node[7]~40_combout $end
$var wire 1 F" inst|inst6|inst12~q $end
$var wire 1 G" inst|inst8|inst6|$00000|auto_generated|result_node[7]~41_combout $end
$var wire 1 H" inst|inst3|inst12~q $end
$var wire 1 I" inst|inst1|inst12~q $end
$var wire 1 J" inst|inst|inst12~q $end
$var wire 1 K" inst|inst8|inst6|$00000|auto_generated|result_node[7]~42_combout $end
$var wire 1 L" inst|inst2|inst12~q $end
$var wire 1 M" inst|inst8|inst6|$00000|auto_generated|result_node[7]~43_combout $end
$var wire 1 N" inst|inst8|inst6|$00000|auto_generated|result_node[7]~44_combout $end
$var wire 1 O" WData[6]~input_o $end
$var wire 1 P" inst|inst4|inst11~q $end
$var wire 1 Q" inst|inst5|inst11~q $end
$var wire 1 R" inst|inst7|inst11~q $end
$var wire 1 S" inst|inst8|inst6|$00000|auto_generated|result_node[6]~45_combout $end
$var wire 1 T" inst|inst6|inst11~q $end
$var wire 1 U" inst|inst8|inst6|$00000|auto_generated|result_node[6]~46_combout $end
$var wire 1 V" inst|inst3|inst11~q $end
$var wire 1 W" inst|inst1|inst11~q $end
$var wire 1 X" inst|inst|inst11~q $end
$var wire 1 Y" inst|inst8|inst6|$00000|auto_generated|result_node[6]~47_combout $end
$var wire 1 Z" inst|inst2|inst11~q $end
$var wire 1 [" inst|inst8|inst6|$00000|auto_generated|result_node[6]~48_combout $end
$var wire 1 \" inst|inst8|inst6|$00000|auto_generated|result_node[6]~49_combout $end
$var wire 1 ]" WData[5]~input_o $end
$var wire 1 ^" inst|inst4|inst10~q $end
$var wire 1 _" inst|inst5|inst10~q $end
$var wire 1 `" inst|inst7|inst10~q $end
$var wire 1 a" inst|inst8|inst6|$00000|auto_generated|result_node[5]~50_combout $end
$var wire 1 b" inst|inst6|inst10~q $end
$var wire 1 c" inst|inst8|inst6|$00000|auto_generated|result_node[5]~51_combout $end
$var wire 1 d" inst|inst3|inst10~q $end
$var wire 1 e" inst|inst1|inst10~q $end
$var wire 1 f" inst|inst|inst10~q $end
$var wire 1 g" inst|inst8|inst6|$00000|auto_generated|result_node[5]~52_combout $end
$var wire 1 h" inst|inst2|inst10~q $end
$var wire 1 i" inst|inst8|inst6|$00000|auto_generated|result_node[5]~53_combout $end
$var wire 1 j" inst|inst8|inst6|$00000|auto_generated|result_node[5]~54_combout $end
$var wire 1 k" WData[4]~input_o $end
$var wire 1 l" inst|inst4|inst9~q $end
$var wire 1 m" inst|inst5|inst9~q $end
$var wire 1 n" inst|inst7|inst9~q $end
$var wire 1 o" inst|inst8|inst6|$00000|auto_generated|result_node[4]~55_combout $end
$var wire 1 p" inst|inst6|inst9~q $end
$var wire 1 q" inst|inst8|inst6|$00000|auto_generated|result_node[4]~56_combout $end
$var wire 1 r" inst|inst3|inst9~q $end
$var wire 1 s" inst|inst1|inst9~q $end
$var wire 1 t" inst|inst|inst9~q $end
$var wire 1 u" inst|inst8|inst6|$00000|auto_generated|result_node[4]~57_combout $end
$var wire 1 v" inst|inst2|inst9~q $end
$var wire 1 w" inst|inst8|inst6|$00000|auto_generated|result_node[4]~58_combout $end
$var wire 1 x" inst|inst8|inst6|$00000|auto_generated|result_node[4]~59_combout $end
$var wire 1 y" WData[3]~input_o $end
$var wire 1 z" inst|inst4|inst8~q $end
$var wire 1 {" inst|inst5|inst8~q $end
$var wire 1 |" inst|inst7|inst8~q $end
$var wire 1 }" inst|inst8|inst6|$00000|auto_generated|result_node[3]~60_combout $end
$var wire 1 ~" inst|inst6|inst8~q $end
$var wire 1 !# inst|inst8|inst6|$00000|auto_generated|result_node[3]~61_combout $end
$var wire 1 "# inst|inst3|inst8~q $end
$var wire 1 ## inst|inst1|inst8~q $end
$var wire 1 $# inst|inst|inst8~q $end
$var wire 1 %# inst|inst8|inst6|$00000|auto_generated|result_node[3]~62_combout $end
$var wire 1 &# inst|inst2|inst8~q $end
$var wire 1 '# inst|inst8|inst6|$00000|auto_generated|result_node[3]~63_combout $end
$var wire 1 (# inst|inst8|inst6|$00000|auto_generated|result_node[3]~64_combout $end
$var wire 1 )# WData[2]~input_o $end
$var wire 1 *# inst|inst4|inst7~q $end
$var wire 1 +# inst|inst5|inst7~q $end
$var wire 1 ,# inst|inst7|inst7~q $end
$var wire 1 -# inst|inst8|inst6|$00000|auto_generated|result_node[2]~65_combout $end
$var wire 1 .# inst|inst6|inst7~q $end
$var wire 1 /# inst|inst8|inst6|$00000|auto_generated|result_node[2]~66_combout $end
$var wire 1 0# inst|inst3|inst7~q $end
$var wire 1 1# inst|inst1|inst7~q $end
$var wire 1 2# inst|inst|inst7~q $end
$var wire 1 3# inst|inst8|inst6|$00000|auto_generated|result_node[2]~67_combout $end
$var wire 1 4# inst|inst2|inst7~q $end
$var wire 1 5# inst|inst8|inst6|$00000|auto_generated|result_node[2]~68_combout $end
$var wire 1 6# inst|inst8|inst6|$00000|auto_generated|result_node[2]~69_combout $end
$var wire 1 7# WData[1]~input_o $end
$var wire 1 8# inst|inst4|inst6~q $end
$var wire 1 9# inst|inst5|inst6~q $end
$var wire 1 :# inst|inst7|inst6~q $end
$var wire 1 ;# inst|inst8|inst6|$00000|auto_generated|result_node[1]~70_combout $end
$var wire 1 <# inst|inst6|inst6~q $end
$var wire 1 =# inst|inst8|inst6|$00000|auto_generated|result_node[1]~71_combout $end
$var wire 1 ># inst|inst3|inst6~q $end
$var wire 1 ?# inst|inst1|inst6~q $end
$var wire 1 @# inst|inst|inst6~q $end
$var wire 1 A# inst|inst8|inst6|$00000|auto_generated|result_node[1]~72_combout $end
$var wire 1 B# inst|inst2|inst6~q $end
$var wire 1 C# inst|inst8|inst6|$00000|auto_generated|result_node[1]~73_combout $end
$var wire 1 D# inst|inst8|inst6|$00000|auto_generated|result_node[1]~74_combout $end
$var wire 1 E# WData[0]~input_o $end
$var wire 1 F# inst|inst4|inst~q $end
$var wire 1 G# inst|inst5|inst~q $end
$var wire 1 H# inst|inst7|inst~q $end
$var wire 1 I# inst|inst8|inst6|$00000|auto_generated|result_node[0]~75_combout $end
$var wire 1 J# inst|inst6|inst~q $end
$var wire 1 K# inst|inst8|inst6|$00000|auto_generated|result_node[0]~76_combout $end
$var wire 1 L# inst|inst3|inst~q $end
$var wire 1 M# inst|inst1|inst~q $end
$var wire 1 N# inst|inst|inst~q $end
$var wire 1 O# inst|inst8|inst6|$00000|auto_generated|result_node[0]~77_combout $end
$var wire 1 P# inst|inst2|inst~q $end
$var wire 1 Q# inst|inst8|inst6|$00000|auto_generated|result_node[0]~78_combout $end
$var wire 1 R# inst|inst8|inst6|$00000|auto_generated|result_node[0]~79_combout $end
$var wire 1 S# Address_two[1]~input_o $end
$var wire 1 T# Address_two[0]~input_o $end
$var wire 1 U# inst5|inst1|inst1|inst2~combout $end
$var wire 1 V# inst|inst9|inst6|$00000|auto_generated|result_node[15]~0_combout $end
$var wire 1 W# inst|inst9|inst6|$00000|auto_generated|result_node[15]~1_combout $end
$var wire 1 X# inst|inst9|inst6|$00000|auto_generated|result_node[15]~2_combout $end
$var wire 1 Y# inst|inst9|inst6|$00000|auto_generated|result_node[15]~3_combout $end
$var wire 1 Z# Address_two[2]~input_o $end
$var wire 1 [# inst5|inst2|inst1|inst2~combout $end
$var wire 1 \# inst|inst9|inst6|$00000|auto_generated|result_node[15]~4_combout $end
$var wire 1 ]# inst|inst9|inst6|$00000|auto_generated|result_node[14]~5_combout $end
$var wire 1 ^# inst|inst9|inst6|$00000|auto_generated|result_node[14]~6_combout $end
$var wire 1 _# inst|inst9|inst6|$00000|auto_generated|result_node[14]~7_combout $end
$var wire 1 `# inst|inst9|inst6|$00000|auto_generated|result_node[14]~8_combout $end
$var wire 1 a# inst|inst9|inst6|$00000|auto_generated|result_node[14]~9_combout $end
$var wire 1 b# inst|inst9|inst6|$00000|auto_generated|result_node[13]~10_combout $end
$var wire 1 c# inst|inst9|inst6|$00000|auto_generated|result_node[13]~11_combout $end
$var wire 1 d# inst|inst9|inst6|$00000|auto_generated|result_node[13]~12_combout $end
$var wire 1 e# inst|inst9|inst6|$00000|auto_generated|result_node[13]~13_combout $end
$var wire 1 f# inst|inst9|inst6|$00000|auto_generated|result_node[13]~14_combout $end
$var wire 1 g# inst|inst9|inst6|$00000|auto_generated|result_node[12]~15_combout $end
$var wire 1 h# inst|inst9|inst6|$00000|auto_generated|result_node[12]~16_combout $end
$var wire 1 i# inst|inst9|inst6|$00000|auto_generated|result_node[12]~17_combout $end
$var wire 1 j# inst|inst9|inst6|$00000|auto_generated|result_node[12]~18_combout $end
$var wire 1 k# inst|inst9|inst6|$00000|auto_generated|result_node[12]~19_combout $end
$var wire 1 l# inst|inst9|inst6|$00000|auto_generated|result_node[11]~20_combout $end
$var wire 1 m# inst|inst9|inst6|$00000|auto_generated|result_node[11]~21_combout $end
$var wire 1 n# inst|inst9|inst6|$00000|auto_generated|result_node[11]~22_combout $end
$var wire 1 o# inst|inst9|inst6|$00000|auto_generated|result_node[11]~23_combout $end
$var wire 1 p# inst|inst9|inst6|$00000|auto_generated|result_node[11]~24_combout $end
$var wire 1 q# inst|inst9|inst6|$00000|auto_generated|result_node[10]~25_combout $end
$var wire 1 r# inst|inst9|inst6|$00000|auto_generated|result_node[10]~26_combout $end
$var wire 1 s# inst|inst9|inst6|$00000|auto_generated|result_node[10]~27_combout $end
$var wire 1 t# inst|inst9|inst6|$00000|auto_generated|result_node[10]~28_combout $end
$var wire 1 u# inst|inst9|inst6|$00000|auto_generated|result_node[10]~29_combout $end
$var wire 1 v# inst|inst9|inst6|$00000|auto_generated|result_node[9]~30_combout $end
$var wire 1 w# inst|inst9|inst6|$00000|auto_generated|result_node[9]~31_combout $end
$var wire 1 x# inst|inst9|inst6|$00000|auto_generated|result_node[9]~32_combout $end
$var wire 1 y# inst|inst9|inst6|$00000|auto_generated|result_node[9]~33_combout $end
$var wire 1 z# inst|inst9|inst6|$00000|auto_generated|result_node[9]~34_combout $end
$var wire 1 {# inst|inst9|inst6|$00000|auto_generated|result_node[8]~35_combout $end
$var wire 1 |# inst|inst9|inst6|$00000|auto_generated|result_node[8]~36_combout $end
$var wire 1 }# inst|inst9|inst6|$00000|auto_generated|result_node[8]~37_combout $end
$var wire 1 ~# inst|inst9|inst6|$00000|auto_generated|result_node[8]~38_combout $end
$var wire 1 !$ inst|inst9|inst6|$00000|auto_generated|result_node[8]~39_combout $end
$var wire 1 "$ inst|inst9|inst6|$00000|auto_generated|result_node[7]~40_combout $end
$var wire 1 #$ inst|inst9|inst6|$00000|auto_generated|result_node[7]~41_combout $end
$var wire 1 $$ inst|inst9|inst6|$00000|auto_generated|result_node[7]~42_combout $end
$var wire 1 %$ inst|inst9|inst6|$00000|auto_generated|result_node[7]~43_combout $end
$var wire 1 &$ inst|inst9|inst6|$00000|auto_generated|result_node[7]~44_combout $end
$var wire 1 '$ inst|inst9|inst6|$00000|auto_generated|result_node[6]~45_combout $end
$var wire 1 ($ inst|inst9|inst6|$00000|auto_generated|result_node[6]~46_combout $end
$var wire 1 )$ inst|inst9|inst6|$00000|auto_generated|result_node[6]~47_combout $end
$var wire 1 *$ inst|inst9|inst6|$00000|auto_generated|result_node[6]~48_combout $end
$var wire 1 +$ inst|inst9|inst6|$00000|auto_generated|result_node[6]~49_combout $end
$var wire 1 ,$ inst|inst9|inst6|$00000|auto_generated|result_node[5]~50_combout $end
$var wire 1 -$ inst|inst9|inst6|$00000|auto_generated|result_node[5]~51_combout $end
$var wire 1 .$ inst|inst9|inst6|$00000|auto_generated|result_node[5]~52_combout $end
$var wire 1 /$ inst|inst9|inst6|$00000|auto_generated|result_node[5]~53_combout $end
$var wire 1 0$ inst|inst9|inst6|$00000|auto_generated|result_node[5]~54_combout $end
$var wire 1 1$ inst|inst9|inst6|$00000|auto_generated|result_node[4]~55_combout $end
$var wire 1 2$ inst|inst9|inst6|$00000|auto_generated|result_node[4]~56_combout $end
$var wire 1 3$ inst|inst9|inst6|$00000|auto_generated|result_node[4]~57_combout $end
$var wire 1 4$ inst|inst9|inst6|$00000|auto_generated|result_node[4]~58_combout $end
$var wire 1 5$ inst|inst9|inst6|$00000|auto_generated|result_node[4]~59_combout $end
$var wire 1 6$ inst|inst9|inst6|$00000|auto_generated|result_node[3]~60_combout $end
$var wire 1 7$ inst|inst9|inst6|$00000|auto_generated|result_node[3]~61_combout $end
$var wire 1 8$ inst|inst9|inst6|$00000|auto_generated|result_node[3]~62_combout $end
$var wire 1 9$ inst|inst9|inst6|$00000|auto_generated|result_node[3]~63_combout $end
$var wire 1 :$ inst|inst9|inst6|$00000|auto_generated|result_node[3]~64_combout $end
$var wire 1 ;$ inst|inst9|inst6|$00000|auto_generated|result_node[2]~65_combout $end
$var wire 1 <$ inst|inst9|inst6|$00000|auto_generated|result_node[2]~66_combout $end
$var wire 1 =$ inst|inst9|inst6|$00000|auto_generated|result_node[2]~67_combout $end
$var wire 1 >$ inst|inst9|inst6|$00000|auto_generated|result_node[2]~68_combout $end
$var wire 1 ?$ inst|inst9|inst6|$00000|auto_generated|result_node[2]~69_combout $end
$var wire 1 @$ inst|inst9|inst6|$00000|auto_generated|result_node[1]~70_combout $end
$var wire 1 A$ inst|inst9|inst6|$00000|auto_generated|result_node[1]~71_combout $end
$var wire 1 B$ inst|inst9|inst6|$00000|auto_generated|result_node[1]~72_combout $end
$var wire 1 C$ inst|inst9|inst6|$00000|auto_generated|result_node[1]~73_combout $end
$var wire 1 D$ inst|inst9|inst6|$00000|auto_generated|result_node[1]~74_combout $end
$var wire 1 E$ inst|inst9|inst6|$00000|auto_generated|result_node[0]~75_combout $end
$var wire 1 F$ inst|inst9|inst6|$00000|auto_generated|result_node[0]~76_combout $end
$var wire 1 G$ inst|inst9|inst6|$00000|auto_generated|result_node[0]~77_combout $end
$var wire 1 H$ inst|inst9|inst6|$00000|auto_generated|result_node[0]~78_combout $end
$var wire 1 I$ inst|inst9|inst6|$00000|auto_generated|result_node[0]~79_combout $end
$upscope $end
$upscope $end
$enddefinitions $end
#0
$dumpvars
b0 !
b0 "
1#
b111 $
0%
b0 &
b11 '
1(
08
07
06
05
04
03
02
01
00
0/
0.
0-
0,
0+
0*
0)
0H
0G
0F
0E
0D
0C
0B
0A
0@
0?
0>
0=
0<
0;
0:
09
0I
1J
xK
1L
1M
1N
0O
0P
0Q
0R
0S
0T
0U
0V
0W
0X
0Y
0Z
0[
0\
0]
0^
0_
0`
0a
0b
0c
0d
0e
0f
0g
0h
0i
0j
0k
0l
0m
0n
0o
0p
1q
1r
1s
1t
0u
0v
1w
0x
0y
0z
0{
0|
0}
0~
0!!
0"!
0#!
0$!
0%!
0&!
0'!
0(!
0)!
0*!
0+!
0,!
0-!
0.!
0/!
10!
01!
02!
03!
04!
05!
06!
07!
08!
09!
0:!
0;!
0<!
0=!
0>!
0?!
0@!
0A!
0B!
0C!
0D!
0E!
0F!
0G!
0H!
0I!
0J!
0K!
0L!
0M!
0N!
0O!
0P!
0Q!
0R!
0S!
0T!
0U!
0V!
0W!
0X!
0Y!
0Z!
0[!
0\!
0]!
0^!
0_!
0`!
0a!
0b!
0c!
0d!
0e!
0f!
0g!
0h!
0i!
0j!
0k!
0l!
0m!
0n!
0o!
0p!
0q!
0r!
0s!
0t!
0u!
0v!
0w!
0x!
0y!
0z!
0{!
0|!
0}!
0~!
0!"
0""
0#"
0$"
0%"
0&"
0'"
0("
0)"
0*"
0+"
0,"
0-"
0."
0/"
00"
01"
02"
03"
04"
05"
06"
07"
08"
09"
0:"
0;"
0<"
0="
0>"
0?"
0@"
0A"
0B"
0C"
0D"
0E"
0F"
0G"
0H"
0I"
0J"
0K"
0L"
0M"
0N"
0O"
0P"
0Q"
0R"
0S"
0T"
0U"
0V"
0W"
0X"
0Y"
0Z"
0["
0\"
0]"
0^"
0_"
0`"
0a"
0b"
0c"
0d"
0e"
0f"
0g"
0h"
0i"
0j"
0k"
0l"
0m"
0n"
0o"
0p"
0q"
0r"
0s"
0t"
0u"
0v"
0w"
0x"
0y"
0z"
0{"
0|"
0}"
0~"
0!#
0"#
0##
0$#
0%#
0&#
0'#
0(#
0)#
0*#
0+#
0,#
0-#
0.#
0/#
00#
01#
02#
03#
04#
05#
06#
17#
08#
09#
0:#
0;#
0<#
0=#
0>#
0?#
0@#
0A#
0B#
0C#
0D#
1E#
0F#
0G#
0H#
0I#
0J#
0K#
0L#
0M#
0N#
0O#
0P#
0Q#
0R#
0S#
0T#
0U#
0V#
0W#
0X#
0Y#
0Z#
0[#
0\#
0]#
0^#
0_#
0`#
0a#
0b#
0c#
0d#
0e#
0f#
0g#
0h#
0i#
0j#
0k#
0l#
0m#
0n#
0o#
0p#
0q#
0r#
0s#
0t#
0u#
0v#
0w#
0x#
0y#
0z#
0{#
0|#
0}#
0~#
0!$
0"$
0#$
0$$
0%$
0&$
0'$
0($
0)$
0*$
0+$
0,$
0-$
0.$
0/$
00$
01$
02$
03$
04$
05$
06$
07$
08$
09$
0:$
0;$
0<$
0=$
0>$
0?$
0@$
0A$
0B$
0C$
0D$
0E$
0F$
0G$
0H$
0I$
$end
#5000
1%
1o
1M#
1?#
1G$
1O#
1B$
1A#
1H$
1Q#
1C$
1C#
1I$
1R#
1D$
1D#
1]
1m
1^
1n
1H
18
1G
17
#10000
0%
0o
#15000
1%
1o
#20000
b1 '
b0 '
0(
0%
0w
0E#
07#
0o
00!
#25000
1%
1o
#30000
0%
0o
#35000
1%
1o
#40000
0%
0o
#45000
1%
1o
#50000
b1 &
0%
1v
0o
#55000
1%
1o
#60000
0%
0o
#65000
1%
1o
#70000
b11 &
b10 &
0%
0v
1x
0o
#75000
1%
1o
#80000
0%
0o
#85000
1%
1o
#90000
b11 &
0%
1v
0o
#95000
1%
1o
#100000
0%
0o
#105000
1%
1o
