HW1/simulation/qsim/HW1.msim.vcd
$comment
	File created using the following command:
		vcd file HW1.msim.vcd -direction
$end
$date
	Sun Mar 04 10:09:06 2018
$end
$version
	ModelSim Version 10.5b
$end
$timescale
	1ps
$end

$scope module carr_select_16_using4_vlg_vec_tst $end
$var reg 1 ! C_in $end
$var reg 16 " X [15:0] $end
$var reg 16 # Y [15:0] $end
$var wire 1 $ C_out $end
$var wire 1 % S [15] $end
$var wire 1 & S [14] $end
$var wire 1 ' S [13] $end
$var wire 1 ( S [12] $end
$var wire 1 ) S [11] $end
$var wire 1 * S [10] $end
$var wire 1 + S [9] $end
$var wire 1 , S [8] $end
$var wire 1 - S [7] $end
$var wire 1 . S [6] $end
$var wire 1 / S [5] $end
$var wire 1 0 S [4] $end
$var wire 1 1 S [3] $end
$var wire 1 2 S [2] $end
$var wire 1 3 S [1] $end
$var wire 1 4 S [0] $end

$scope module i1 $end
$var wire 1 5 gnd $end
$var wire 1 6 vcc $end
$var wire 1 7 unknown $end
$var tri1 1 8 devclrn $end
$var tri1 1 9 devpor $end
$var tri1 1 : devoe $end
$var wire 1 ; ~QUARTUS_CREATED_GND~I_combout $end
$var wire 1 < Y[11]~input_o $end
$var wire 1 = X[10]~input_o $end
$var wire 1 > Y[10]~input_o $end
$var wire 1 ? X[8]~input_o $end
$var wire 1 @ Y[8]~input_o $end
$var wire 1 A X[7]~input_o $end
$var wire 1 B Y[9]~input_o $end
$var wire 1 C X[9]~input_o $end
$var wire 1 D inst2|inst5|inst|inst2~combout $end
$var wire 1 E Y[4]~input_o $end
$var wire 1 F X[4]~input_o $end
$var wire 1 G inst1|inst14|$00001|auto_generated|l1_w0_n0_mux_dataout~0_combout $end
$var wire 1 H Y[5]~input_o $end
$var wire 1 I Y[6]~input_o $end
$var wire 1 J X[6]~input_o $end
$var wire 1 K X[5]~input_o $end
$var wire 1 L X[2]~input_o $end
$var wire 1 M Y[2]~input_o $end
$var wire 1 N Y[3]~input_o $end
$var wire 1 O inst1|inst14|$00001|auto_generated|l1_w0_n0_mux_dataout~1_combout $end
$var wire 1 P X[3]~input_o $end
$var wire 1 Q X[0]~input_o $end
$var wire 1 R X[1]~input_o $end
$var wire 1 S Y[1]~input_o $end
$var wire 1 T Y[0]~input_o $end
$var wire 1 U C_in~input_o $end
$var wire 1 V inst|inst14|$00001|auto_generated|l1_w0_n0_mux_dataout~0_combout $end
$var wire 1 W inst1|inst14|$00001|auto_generated|l1_w0_n0_mux_dataout~2_combout $end
$var wire 1 X inst1|inst14|$00001|auto_generated|l1_w0_n0_mux_dataout~3_combout $end
$var wire 1 Y Y[7]~input_o $end
$var wire 1 Z inst2|inst14|$00001|auto_generated|l1_w0_n0_mux_dataout~0_combout $end
$var wire 1 [ inst2|inst5|inst|inst~combout $end
$var wire 1 \ X[11]~input_o $end
$var wire 1 ] inst2|inst14|$00001|auto_generated|l1_w0_n0_mux_dataout~1_combout $end
$var wire 1 ^ X[13]~input_o $end
$var wire 1 _ X[12]~input_o $end
$var wire 1 ` Y[13]~input_o $end
$var wire 1 a Y[12]~input_o $end
$var wire 1 b inst3|inst14|$00001|auto_generated|l1_w0_n0_mux_dataout~0_combout $end
$var wire 1 c X[14]~input_o $end
$var wire 1 d Y[14]~input_o $end
$var wire 1 e X[15]~input_o $end
$var wire 1 f Y[15]~input_o $end
$var wire 1 g inst3|inst14|$00001|auto_generated|l1_w0_n0_mux_dataout~1_combout $end
$var wire 1 h inst3|inst13|$00001|auto_generated|l1_w0_n0_mux_dataout~0_combout $end
$var wire 1 i inst3|inst6|inst|inst2~combout $end
$var wire 1 j inst3|inst12|$00001|auto_generated|l1_w0_n0_mux_dataout~0_combout $end
$var wire 1 k inst3|inst11|$00001|auto_generated|l1_w0_n0_mux_dataout~0_combout $end
$var wire 1 l inst3|inst10|$00001|auto_generated|l1_w0_n0_mux_dataout~0_combout $end
$var wire 1 m inst2|inst13|$00001|auto_generated|l1_w0_n0_mux_dataout~0_combout $end
$var wire 1 n inst2|inst12|$00001|auto_generated|l1_w0_n0_mux_dataout~0_combout $end
$var wire 1 o inst1|inst14|$00001|auto_generated|l1_w0_n0_mux_dataout~4_combout $end
$var wire 1 p inst2|inst11|$00001|auto_generated|l1_w0_n0_mux_dataout~0_combout $end
$var wire 1 q inst2|inst10|$00001|auto_generated|l1_w0_n0_mux_dataout~0_combout $end
$var wire 1 r inst1|inst13|$00001|auto_generated|l1_w0_n0_mux_dataout~0_combout $end
$var wire 1 s inst1|inst12|$00001|auto_generated|l1_w0_n0_mux_dataout~0_combout $end
$var wire 1 t inst1|inst11|$00001|auto_generated|l1_w0_n0_mux_dataout~0_combout $end
$var wire 1 u inst|inst14|$00001|auto_generated|l1_w0_n0_mux_dataout~1_combout $end
$var wire 1 v inst1|inst10|$00001|auto_generated|l1_w0_n0_mux_dataout~0_combout $end
$var wire 1 w inst|inst13|$00001|auto_generated|l1_w0_n0_mux_dataout~0_combout $end
$var wire 1 x inst|inst12|$00001|auto_generated|l1_w0_n0_mux_dataout~0_combout $end
$var wire 1 y inst|inst11|$00001|auto_generated|l1_w0_n0_mux_dataout~0_combout $end
$var wire 1 z inst|inst10|$00001|auto_generated|l1_w0_n0_mux_dataout~0_combout $end
$upscope $end
$upscope $end
$enddefinitions $end
#0
$dumpvars
1!
b1010011111101000 "
b11000001100 #
0$
14
03
12
01
10
1/
1.
1-
1,
0+
1*
1)
0(
1'
0&
1%
05
16
x7
18
19
1:
0;
0<
1=
1>
1?
0@
1A
1B
1C
0D
0E
0F
0G
0H
0I
1J
1K
0L
1M
1N
1O
1P
0Q
0R
0S
0T
1U
0V
0W
1X
0Y
0Z
1[
0\
1]
1^
0_
0`
0a
0b
0c
0d
1e
0f
0g
1h
0i
0j
1k
0l
1m
1n
0o
0p
1q
1r
1s
1t
1u
1v
0w
1x
0y
1z
$end
#1883
0!
0U
0z
04
#5416
1!
1U
1z
14
#8549
0!
0U
0z
04
#10000
b1110011111101000 "
b1110001111101000 "
b1110001011101000 "
b1110001010101000 "
b1110001010111000 "
b100011000001100 #
b110011000001100 #
b110001000001100 #
b110000000001100 #
b110000001001100 #
b110000001101100 #
b110000001111100 #
b110000001111000 #
b110000001111010 #
1S
0M
1E
1H
1I
0B
0>
1`
1d
1F
0J
0?
0=
1c
0X
0O
1G
1b
0[
1D
0h
1g
0m
0q
0s
0k
1j
0t
0x
1y
13
02
0/
1&
0'
0.
0,
0)
1$
0%
1W
1o
1p
0n
1t
0r
0-
1/
0*
1+
1q
1,
#12082
1!
1U
1z
14
#15215
0!
0U
0z
04
#18748
1!
1U
1z
14
#20000
b1100001010111000 "
b1100000010111000 "
b1100000010011000 "
b1100000010011100 "
b1110000001111010 #
b1111000001111010 #
b1111100001111010 #
b1000000010011100 "
b1000010010011100 "
b1011100001111010 #
b1001100001111010 #
b1001110001111010 #
b1001110001011010 #
0!
0H
1>
1<
1a
0`
0d
1f
1L
0K
0C
1=
0^
0c
0U
0b
0]
0D
1X
0z
0j
1s
1x
1l
1(
12
1.
0&
04
0o
1r
0p
0l
1k
1'
0(
0+
1-
0q
0,
#21663
1!
1U
1z
14
#26163
0!
0U
0z
04
#30000
b1000110010011100 "
b1000110010010100 "
b1000110010010110 "
b1001110011011010 #
b1001110011010010 #
b1000110110010110 "
b1000110110000110 "
b1001111011010010 #
b1001111010010010 #
b1001111010010110 #
b1010110110000110 "
b1010110110100110 "
b1010110110100010 "
b1111010010110 #
b111010010110 #
b11010010110 #
b1010100110100010 "
b11010110110 #
1M
0N
1H
0I
1Y
1B
0<
0a
0f
1R
0L
0P
0F
1K
1?
0=
1\
1^
1]
0G
0u
0W
1V
1D
1o
1m
1n
1q
0v
0y
1h
0g
1l
0r
0-
1(
0$
1%
03
00
1,
1*
1)
1Z
0q
0x
1w
0t
1v
0l
0(
10
0/
11
02
0,
0]
0n
0m
0)
0*
1l
1(
#31663
1!
1U
1z
14
#36163
0!
0U
0z
04
#40000
b1011100110100010 "
b1011100110100011 "
b11110110110 #
b1111100110100011 "
b10011110110110 #
b10001110110110 #
b1111000110100011 "
b1111000110100001 "
b10001100110110 #
b10001101110110 #
b1101000110100001 "
b1101000110000001 "
b10101101110110 #
b10101101010110 #
1!
0H
1I
0Y
1@
0>
1<
1`
1Q
0R
0K
0\
1_
0^
1c
1U
1i
1b
1]
0o
0k
1j
0l
1m
1n
1q
1r
1-
1,
1*
1)
0(
1&
0'
0b
0q
1l
1k
0h
1g
1$
0%
1'
1(
0,
1h
0g
0$
1%
#40631
0!
0U
0V
1z
1y
13
14
1x
0w
01
12
#46731
1!
1U
1V
0z
0y
03
04
0x
1w
11
02
#50000
b1101000100000001 "
b1101000101000001 "
b110101101010110 #
b1101000101001001 "
b110101101011110 #
b1101000101011001 "
b110100101011110 #
b1101000101011101 "
b1101010101011101 "
b110100001011110 #
b1001010101011101 "
b100100001011110 #
b100100011011110 #
b100100010011110 #
b100000010011110 #
b100000010111110 #
0!
1N
1H
0I
1Y
0@
0B
0<
0`
1d
1L
1P
1F
1J
0A
1=
0c
0U
0V
0Z
1G
1u
1W
0D
1z
1y
0n
0v
1x
0k
1q
1p
1t
1/
1+
1,
0'
12
00
0*
13
14
0X
0p
0t
0s
1v
1n
0m
0x
02
0)
1*
10
0.
0/
0+
1o
0r
0-
0q
1p
1+
0,
#51905
1!
1U
1V
0z
0y
03
04
1x
12
#53004
0!
0U
0V
1z
1y
13
14
0x
02
#55238
1!
1U
1V
0z
0y
03
04
1x
12
#56337
0!
0U
0V
1z
1y
13
14
0x
02
#58571
1!
1U
1V
0z
0y
03
04
1x
12
#59670
0!
0U
0V
1z
1y
13
14
0x
02
#60000
b100000010111111 #
b100000010111101 #
b1001011101011101 "
b1001011001011101 "
b1100000010111101 #
b1101000010111101 #
b1001111001011101 "
b1001111001111101 "
b1001111011111101 "
b1001111010111101 "
b1001000010111101 #
b1001000010110101 #
b1001111010101101 "
b1001111010101001 "
b1001000110110101 #
b1101111010101001 "
b1011000110110101 #
b1011000100110101 #
b1011000100010101 #
0L
0F
1K
0J
1A
0?
1C
1\
1c
1T
0S
0N
0H
0Y
1@
1a
1`
0d
1f
1b
1X
0u
0W
1D
0G
0h
1g
0j
0l
1s
0z
1m
0v
1x
12
00
1)
04
1.
0(
0&
1$
0%
0o
1t
0s
0p
1v
1r
1h
1%
1-
10
0+
0.
1/
1q
1p
1+
1,
#62057
1!
1U
1z
14
#63090
0!
0U
0z
04
#65390
1!
1U
1z
14
#66423
0!
0U
0z
04
#68723
1!
1U
1z
14
#69756
0!
0U
0z
04
#70000
b1011000100000101 #
b1100111010101001 "
b1100111010101000 "
b1011010100000101 #
b1100111010101010 "
b1100111010100010 "
b1100101010100010 "
b1011010101000101 #
b1011110101000101 #
b1100101110100010 "
b1100001110100010 "
b1100001110000010 "
b1100001100000010 "
b1100001101000010 "
b1011110101001101 #
b1011110001001101 #
b1000001101000010 "
b1011110011001101 #
1!
0Q
1R
0P
0K
1J
0A
1?
0=
0\
0_
0c
1N
0E
1I
1Y
0@
1>
1<
1U
1V
0X
1O
0i
0b
0y
0v
0h
1l
1k
1j
0t
0/
1&
1'
1(
0%
00
03
1o
1Z
1u
0j
0r
0x
0w
01
02
0-
0&
0]
1v
0n
0m
0q
0p
0+
0,
0)
0*
10
1b
0l
0k
1j
1&
0'
0(
#71071
0!
0U
0V
1z
1y
13
14
0u
1x
1w
11
12
0v
00
#75604
1!
1U
1V
0z
0y
03
04
1u
0x
0w
01
02
1v
10
#77737
0!
0U
0V
1z
1y
13
14
0u
1x
1w
11
12
0v
00
#80000
b1101000010 "
b1011110011001001 #
b1011111011001001 #
b101000010 "
b1111111011001001 #
b101010010 "
b1101111011001001 #
b1101111011101001 #
b101010011 "
b101011011 "
b10101011011 "
b1101111010101001 #
b110101011011 "
b110101111011 "
b1101111010100001 #
b1101111110100001 #
b100110101111011 "
b1101111100100001 #
0M
0N
1H
0I
0Y
1@
1B
0`
1d
1Q
1P
1F
1K
0C
1=
1\
1c
0e
0O
1V
0b
0o
1m
1n
1v
0z
0y
1k
0j
1q
1r
0x
02
1-
1,
0&
1'
03
04
10
1*
1)
0q
1x
12
0,
#82270
1!
1U
1z
14
#84403
0!
0U
0z
04
#88936
1!
1U
1z
14
#90000
b1101111100100000 #
b101111100100000 #
b101011100100000 #
b1100110101111011 "
b101011100100100 #
b101010100100100 #
b1100111101111011 "
b1100111101101011 "
b111010100100100 #
b1100111101100011 "
b1000111101100011 "
0P
0F
1C
0c
1e
0T
1M
0B
0<
1`
0f
1b
1i
1O
1h
0g
0k
1j
0m
0x
0z
0v
00
04
02
0)
1&
0'
0$
1%
0j
0h
1g
1$
0%
0&
#93025
0!
0U
0V
1z
1y
13
14
1x
0w
01
12
#99425
1!
1U
1V
0z
0y
03
04
0x
1w
11
02
#100000
b110010100100100 #
b1000111101100111 "
b1001111101100111 "
b110000100100100 #
b1001111101100101 "
b1001111001100101 "
b1001111000100101 "
b10000100100100 #
b10000100000100 #
b1001111000100100 "
b1001111000000100 "
b10000000000100 #
b10000010000100 #
b10000010000101 #
b1010000010000101 #
b1010100010000101 #
b1111000000100 "
b1111000001100 "
b101111000001100 "
0!
0Q
0R
1L
1P
0K
0J
0?
1_
1c
0e
1T
0H
1Y
0@
0>
1<
0a
0d
1f
0U
0V
0Z
1o
1X
1u
1z
1m
0n
1p
0r
0w
1x
12
01
0-
1+
0*
1)
14
0o
1v
1r
1q
1n
0m
0x
02
0)
1*
1,
1-
10
0q
0,
#106396
1!
1U
0z
1y
13
04
#110000
b111111000001100 "
b1010100010000111 #
b111101000001100 "
b1010100010001111 #
b1010100010001011 #
b1010101010001011 #
b1000101010001011 #
b1001101010001011 #
b111101000001000 "
b110101000001000 "
b1001111010001011 #
b110101000001010 "
b110101001001010 "
b1001111010101011 #
b1001111010101010 #
b1111010101010 #
0T
1S
0M
1N
1H
1B
1>
1a
0`
0f
1R
0L
1J
0=
0_
1^
1V
1[
0D
1s
0y
1h
0g
1t
1z
14
1/
0$
1%
03
1.
0p
0n
1m
1x
12
1)
0*
0+
#113396
0!
0U
0z
04
#120000
b110101011001010 "
b110100011001010 "
b110100011011010 "
b110100111011010 "
b110100111011011 "
b110100111111011 "
b1111110101010 #
b1011110101010 #
b1110100111111011 "
b1010100111111011 "
b1011110100010 #
b1011110100110 #
b11110100110 #
b1010100111111111 "
b1110100110 #
b1010100111111101 "
b1000001110100110 #
1M
0N
1@
0>
0<
0a
1f
1Q
0R
1L
1F
1K
1A
1?
0C
0c
1e
0i
0[
1D
1o
0X
0O
0V
0b
1]
0h
1g
1p
0r
0t
0s
0v
1y
1z
1l
1k
1j
1n
1*
1&
1'
1(
14
13
00
0.
0/
0-
1+
1$
0%
1W
1Z
0l
0j
0x
1r
1q
0p
0n
0*
0+
1,
1-
02
0&
0(
1n
1t
1/
1*
#123293
1!
1U
1V
0z
0y
03
04
1x
12
#127893
0!
0U
0V
1z
1y
13
14
0x
02
#130000
b1000001110110110 #
b1010000111111101 "
b1010000111110101 "
b1000000110110110 #
b1010000110110101 "
b1000000110010110 #
b1000000110010111 #
b1010000010110101 "
b1010000010010101 "
b1000000010010111 #
b10000010010101 "
b1000000010011111 #
b1000000010011011 #
b1001000010011011 #
b1001010010011011 #
0P
0K
0J
0?
0\
0e
1T
0M
1N
1E
0H
0@
0B
1>
1a
0D
0Z
1X
1G
0u
0W
1V
1l
0n
1p
1v
1w
1x
0z
0y
1h
0g
0$
1%
03
04
12
11
10
1+
0*
1(
1u
1W
0x
0w
0v
0r
1n
0m
0p
0+
0)
1*
0-
00
01
02
1v
10
#133293
1!
1U
1z
14
#137893
0!
0U
0z
04
#140000
b1011010010011011 #
b10000000010101 "
b10000000010100 "
b1011110010011011 #
b110000000010100 "
b110000000010000 "
b110000000011000 "
b1011111010011011 #
b1011111010011010 #
b110000100011000 "
b1110000100011000 "
b1010111010011010 #
b1010101010011010 #
0Q
0L
1P
0A
1?
1c
1e
0T
1B
0>
1<
0a
1`
1b
1D
0V
1i
0o
0k
1j
0l
1m
0n
1y
0h
1g
0q
1p
1r
1x
12
1-
1+
0,
1$
0%
13
0*
1)
0(
1&
0'
1q
0j
0x
1h
1%
02
0&
1,
#142050
1!
1U
1z
14
#144249
0!
0U
0z
04
#148716
1!
1U
1z
14
#150000
b1010101011011010 #
b1010101001011010 #
b1010101001011000 #
b1111000100011000 "
b1111000100001000 "
b1111000100001010 "
b1010101001001000 #
b1010101001101000 #
b1010101101101000 #
b1010101101100000 #
b1111000110001010 "
b1010001101100000 #
b1011000110001010 "
b1011000110001110 "
b1011000110000110 "
b1010001101100001 #
b1011000010000110 "
b1011001101100001 #
1R
1L
0P
0F
1A
0?
1_
0c
1T
0S
0N
0E
1H
1I
0Y
1@
0<
1a
0X
1O
0G
0u
0W
1V
0i
1k
0m
0t
0y
0z
0h
1x
12
0%
04
03
0/
0)
1'
1X
1o
1Z
1j
0x
1w
1t
1s
0v
0r
0-
00
1.
1/
11
02
1&
0o
0Z
1n
0q
0p
1r
1-
0+
0,
1*
0n
1q
1p
1+
1,
0*
#150915
0!
0U
0V
1z
1y
13
14
1x
0w
01
12
#155382
1!
1U
1V
0z
0y
03
04
0x
1w
11
02
#157581
0!
0U
0V
1z
1y
13
14
1x
0w
01
12
#160000
b1111001101100001 #
b1001000010000110 "
b1001010010000110 "
b1001010011000110 "
b1001010011000111 "
b1010011000111 "
b1111011101100001 #
b1111011111100001 #
b1111011111000001 #
b1010001000111 "
b1111011111000000 #
1Q
1J
0A
1=
0^
0e
0T
0H
1Y
1>
1d
1i
0X
1m
0t
0s
0k
0'
0.
0/
1)
1o
1Z
0r
0j
0&
0-
1n
0q
0p
0+
0,
1*
#160552
1!
1U
1V
0z
0y
03
04
0x
1w
11
02
#162118
0!
0U
0V
1z
1y
13
14
1x
0w
01
12
#163885
1!
1U
1V
0z
0y
03
04
0x
1w
11
02
#165451
0!
0U
0V
1z
1y
13
14
1x
0w
01
12
#167218
1!
1U
1V
0z
0y
03
04
0x
1w
11
02
#168784
0!
0U
0V
1z
1y
13
14
1x
0w
01
12
#170000
b111011111000000 #
b1010001100111 "
b101011111000000 #
b101011111000010 #
b10001100111 "
b10001110111 "
b10001110101 "
b101011111010010 #
b101011011010010 #
b101011011011010 #
b101111011011010 #
b100111011011010 #
b10000110101 "
b1000010000110101 "
b100111011111010 #
1!
0R
1F
1K
0J
0_
1e
1S
1N
1E
1H
0@
1<
0a
0`
0f
1U
1V
0b
0]
0Z
0O
1G
0z
0y
1j
0m
1q
1p
1w
11
1+
1,
0)
1&
03
04
1W
1u
1t
0n
1l
1h
0g
0x
0w
01
02
0$
1%
1(
0*
1/
1v
10
#171252
0!
0U
0V
1z
1y
13
14
0u
0W
1x
1w
11
12
0v
00
#173186
1!
1U
1V
0z
0y
03
04
1u
1W
0x
0w
01
02
1v
10
#174585
0!
0U
0V
1z
1y
13
14
0u
0W
1x
1w
11
12
0v
00
#176519
1!
1U
1V
0z
0y
03
04
1u
1W
0x
0w
01
02
1v
10
#177918
0!
0U
0V
1z
1y
13
14
0u
0W
1x
1w
11
12
0v
00
#179852
1!
1U
1V
0z
0y
03
04
1u
1W
0x
0w
01
02
1v
10
#180000
b1000011000110101 "
b100111011111110 #
b100111010111110 #
b1000011000110001 "
b1000011000111001 "
b111010111110 #
b1010011000111001 "
b1010001000111001 "
b1010001000111000 "
b111000111110 #
b1000111000111110 #
b1010111000111110 #
b1011001000111000 "
b1011001000111010 "
b1010111000101110 #
b1010111000100110 #
b1010011000100110 #
b1011001001111010 "
b11001001111010 "
b1010011000000110 #
0!
1M
0N
0E
0H
0I
0Y
0<
1`
0d
1f
0Q
1R
0L
1P
1J
1C
0=
1_
1^
0e
0U
1b
1]
1[
0D
0i
0o
0G
1k
0j
0l
1n
1r
0t
0v
00
0/
1-
1*
0(
0&
1'
0q
0p
1j
0n
1m
1l
0k
0'
1(
1)
0*
1&
0+
0,
#181559
1!
1U
1z
14
#184159
0!
0U
0z
04
#186559
1!
1U
1z
14
#189159
0!
0U
0z
04
#190000
b111001001111010 "
b111000001111010 "
b1010011000000010 #
b111000001110010 "
b1110011000000010 #
b111010001110010 "
b111010001110011 "
b110011000000010 #
b100011000000010 #
b111010001110001 "
b100011000010010 #
b100011000011010 #
b111010000110001 "
b100011000111010 #
0M
1N
1E
1H
0`
1d
0f
1Q
0R
0P
0J
0C
1=
1c
0[
1D
1X
0u
0W
0V
0b
1G
1n
1s
1w
1y
1z
1k
0j
1t
1v
1x
12
10
1/
0&
1'
14
13
11
1.
1*
0x
0v
0r
1p
0n
0*
1+
0-
00
02
#190269
1!
1U
1V
0z
0y
03
04
1x
12
#193002
0!
0U
0V
1z
1y
13
14
0x
02
#196935
1!
1U
1V
0z
0y
03
04
1x
12
#199668
0!
0U
0V
1z
1y
13
14
0x
02
#200000
b100010000111010 #
b100000000111010 #
b111010010110001 "
b111010010100001 "
b101010010100001 "
b100010010100001 "
b100100000111010 #
b100010010101001 "
b100010010101000 "
b1100100000111010 #
b100010010101010 "
b1100100000101010 #
b1100100000100010 #
0Q
1R
1P
0F
1A
0_
0^
0N
0E
0B
0>
1<
1f
0D
1O
0G
1V
0h
1g
1n
0k
0l
1r
0y
0z
04
03
1-
0(
0'
1*
1$
0%
1x
0t
0p
0+
0/
12
#203601
1!
1U
1z
14
#206334
0!
0U
0z
04
#210000
b100010110101010 "
b1100100000100011 #
b1101100000100011 #
b1101100001100011 #
b1101100011100011 #
b100011110101010 "
b100001110101010 "
b1111100011100011 #
b100001111101010 "
b1111100011000011 #
b1111110011000011 #
b101001111101010 "
b101001111101000 "
b1111110011001011 #
1!
1T
1N
0H
1I
1Y
1>
1a
1`
0R
1J
1?
1C
0=
1_
1U
1b
1D
0X
1o
1u
1j
1q
0s
0r
1t
0w
01
1/
0-
0.
1,
1&
1Z
1v
0q
1r
1-
0,
10
0]
0n
0m
0)
0*
1l
1(
#210230
0!
0U
0V
1z
1y
13
14
0x
02
#215930
1!
1U
1V
0z
0y
03
04
1x
12
#220000
b101001111001000 "
b1111110111001011 #
b1101001111001000 "
b1111110111001111 #
b1111111111001111 #
b1111001111001000 "
b1111001111000000 "
b1111001111000001 "
b111111111001111 #
b111111111011111 #
b111111111011110 #
b110111111011110 #
b110111110011110 #
b1111001110000001 "
b110111110111110 #
b1110001110000001 "
b1110001110000011 "
0T
1M
1E
1H
0I
1@
1B
0a
0f
1Q
1R
0P
0K
0J
0_
1^
1e
1X
1[
0D
0O
1y
1q
0v
0x
02
00
1,
13
1W
0Z
1p
0r
0-
1+
0t
1s
1.
0/
#220503
0!
0U
1z
0y
03
14
#226203
1!
1U
0z
1y
13
04
#230000
b1110001110000111 "
b1010001110000111 "
b1010001110010111 "
b110011110111110 #
b1010000110010111 "
b110011110110110 #
b1010000110110111 "
b10000110110111 "
b110010110110110 #
b10000110111111 "
b1110010110110110 #
b1110010110100110 #
b1110010110100111 #
b10000110111101 "
1T
0N
0E
0B
0<
1f
0R
1L
1P
1F
1K
0C
0c
0e
1i
0[
1]
1t
1x
0y
1m
1z
14
1)
03
12
1/
0l
0j
1n
0m
0)
1*
0&
0(
#230649
0!
0U
0z
04
#234099
1!
1U
1z
14
#235649
0!
0U
0z
04
#239099
1!
1U
1z
14
#240000
b1110010110100101 #
b10000100111101 "
b10000000111101 "
b1110010100100101 #
b10010000111101 "
b1100010100100101 #
b1100000100100101 #
b10000111101 "
b1101000100100101 #
b1101000101100101 #
b1101000101000101 #
b1010000111101 "
b1010000111001 "
b101010000111001 "
b101010000101001 "
b1101010000101001 "
b1101001101000101 #
b1101001101010101 #
b1101001101010100 #
b1101010000101011 "
0!
1R
0L
0F
0A
0?
1=
1_
0^
1c
1e
0T
0S
1E
0H
1I
0Y
1B
0>
1a
0`
0U
0V
0b
1D
0o
0X
0i
1y
1k
1j
0s
0t
1h
0q
0x
02
0,
1%
0/
0.
1&
1'
13
0u
0W
0j
1r
1q
1x
1w
11
12
1,
1-
0&
1X
1t
1s
1v
10
1.
1/
0r
0-
#241365
1!
1U
1V
0z
0y
03
04
1u
1W
0x
0w
01
02
0X
0t
0s
0v
00
0.
0/
1r
1-
#243498
0!
0U
0V
1z
1y
13
14
0u
0W
1x
1w
11
12
1X
1t
1s
1v
10
1.
1/
0r
0-
#248031
1!
1U
1V
0z
0y
03
04
1u
1W
0x
0w
01
02
0X
0t
0s
0v
00
0.
0/
1r
1-
#250000
b1101110000101011 "
b1101110001101011 "
b1101101101010100 #
b101101101010100 #
b101101101010110 #
b1101110101101011 "
b1101100101101011 "
b111101101010110 #
b1111100101101011 "
b1110100101101011 "
b1110100101111011 "
b110100101111011 "
b111101101010111 #
1T
1S
1<
1`
0f
1F
1J
1?
0=
1\
0_
1^
0e
1b
0]
1Z
1G
0g
0k
1j
1l
0n
0q
0p
1s
1v
1y
1z
14
13
10
1.
0+
0,
0*
1(
1&
0'
0$
1n
0l
1k
1'
0(
1*
#250164
0!
0U
0z
04
#254697
1!
1U
1z
14
#256830
0!
0U
0z
04
#260000
b11101101010111 #
b11101001010111 #
b11101001010011 #
b110100101111010 "
b11101001011011 #
b110100101011010 "
b110100101010010 "
b110100111010010 "
b10101001011011 #
b10101001111011 #
b110100111010110 "
b10100111010110 "
b10100111010100 "
b10100110010100 "
b1010101001111011 #
b1010101001111001 #
b10100010010100 "
b10110010010100 "
b1010101001111000 #
1!
0Q
0R
1L
0P
0K
0J
1A
0?
1=
0c
0T
0S
0M
1N
1H
0@
0a
0d
1f
1U
0V
0Z
1o
1z
0y
1l
0k
1p
0s
0n
1m
0r
0-
1)
0*
0.
1+
0'
1(
03
14
0u
0W
1q
1n
0m
1x
1w
11
12
0)
1*
1,
0v
00
#261215
0!
0U
0z
04
#262815
1!
1U
1z
14
#264548
0!
0U
0z
04
#266148
1!
1U
1z
14
#267881
0!
0U
0z
04
#269481
1!
1U
1z
14
#270000
b10111010010100 "
b1010101011111000 #
b1010100011111000 #
b10011010010100 "
b1010000011111000 #
b1000000011111000 #
b11010010100 "
b1011010010100 "
b1011010000100 "
b1100000011111000 #
b1100000011111100 #
b1011010000101 "
b1011010100101 "
b1011000100101 "
b1100000011011100 #
b100000011011100 #
b1011100100101 "
b100000011011101 #
0!
1T
1M
0H
1Y
0B
0<
0`
1d
0f
1Q
0F
1K
0A
1?
1C
0\
1_
0^
0U
0b
1]
1Z
0G
1i
1u
1W
0z
1y
1k
0j
0l
0q
0p
1v
0x
0w
01
02
10
0+
0,
0(
0&
1'
13
04
0v
1j
0n
1m
1l
0k
0h
0%
0'
1(
1)
0*
1&
00
#273462
1!
1U
1z
14
#277362
0!
0U
0z
04
#280000
b100010011011101 #
b100010011010101 #
b101011100100101 "
b100010011010111 #
b101010100100101 "
b100010001010111 #
b101110100100101 "
b100110100100101 "
b10001010111 #
b10001010011 #
b100110100100100 "
b100110100000100 "
b10001110011 #
b1000010001110011 #
0Q
0K
0C
1\
0_
1c
1S
0M
0N
1H
0Y
1>
0d
1f
0]
0o
0Z
0u
0W
0D
1h
1n
0m
1r
1x
0l
1z
14
0(
12
1-
0)
1*
1%
1X
1t
1s
1v
0n
1q
1l
1(
1,
0*
10
1.
1/
0r
0-
#283462
1!
1U
1V
0z
0y
03
04
0x
1w
11
02
#287362
0!
0U
0V
1z
1y
13
14
1x
0w
01
12
#290000
b1000010001100011 #
b1100110100000100 "
b1000010101100011 #
b1100110100000000 "
b1100110100000010 "
b1000011101100011 #
b1000111101100011 #
b1000111101100010 #
b1000110100000010 "
b1000111100000010 "
b1000011100000010 "
b1100111101100010 #
b1100111101100110 #
1R
0L
1C
0\
0c
1e
0T
1M
0E
1@
1B
1<
1d
1[
1O
1V
0h
1g
0q
1p
0v
0z
0y
03
04
00
1+
0,
1$
0%
0x
1w
1n
1*
11
02
#292149
1!
1U
1z
14
#296649
0!
0U
0z
04
#300000
b1100111100100110 #
b1000011100001010 "
b1101111100100110 #
b1000011101001010 "
b1010011101001010 "
b1010011101011010 "
b1010011001011010 "
b1101111100100100 #
b1101111100110100 #
b1101111000110100 #
b1010011001011000 "
b1101110000110100 #
b1110011001011000 "
b1110010001011000 "
b1110110001011000 "
b1001110000110100 #
b1001110000110000 #
0R
1P
1F
1J
0?
0C
1\
1^
1c
0S
0M
1E
0I
0@
0B
1a
0d
1b
0[
0O
1G
0V
0l
0j
0p
1x
1m
1)
12
0+
0&
0(
0X
0x
0t
0s
0n
1h
1%
0*
0.
0/
02
1r
1-
#306145
1!
1U
1z
14
#309845
0!
0U
0z
04
#310000
b1110100001011000 "
b1011110000110000 #
b1011100000110000 #
b11100000110000 #
b110100001011000 "
b110100001011100 "
b11000000110000 #
b11000000110001 #
b110100000011100 "
b110100000001100 "
b110100100001100 "
b11000000110011 #
b11000100110011 #
b11001100110011 #
b10100100001100 "
b10101100001100 "
1T
1S
1@
1B
0>
0<
1`
0f
1L
0F
0J
1?
1C
0=
0c
0e
0i
1]
1[
1X
0G
0h
0g
1p
1s
1v
1x
1k
1y
1z
14
13
1'
12
10
1.
1+
0$
0%
1t
0s
0r
1n
1l
0k
1j
1&
0'
1(
1*
0-
0.
1/
#316145
1!
1U
1V
0z
0y
03
04
1u
1W
0x
0w
01
02
0t
1s
0v
00
1.
0/
#319845
0!
0U
0V
1z
1y
13
14
0u
0W
1x
1w
11
12
1t
0s
1v
10
0.
1/
